{
    "description": "AdoptOpenJDK 8 JRE with Oracle HotSpot JVM (Nightly builds)",
    "homepage": "https://adoptopenjdk.net",
    "version": "202008270158",
    "license": "GPL-2.0-only WITH Classpath-exception-2.0",
    "architecture": {
        "64bit": {
            "url": "https://github.com/AdoptOpenJDK/openjdk8-binaries/releases/download/jdk8u-2020-08-27-01-58/OpenJDK8U-jre_x64_windows_hotspot_2020-08-27-01-58.zip",
            "hash": "fbeb6e28394af4b07ef3a5174899d8213ac002cd25a110f323d621c7ece8c9ce"
        }
    },
    "extract_to": "tmp",
    "installer": {
        "script": [
            "(Get-ChildItem -Directory \"$dir\\tmp\").FullName | % { Move-Item \"$_\\*\" \"$dir\" }",
            "Remove-Item -Recurse \"$dir\\tmp\""
        ]
    },
    "env_add_path": "bin",
    "env_set": {
        "JAVA_HOME": "$dir"
    },
    "checkver": {
        "url": "https://api.adoptopenjdk.net/v3/assets/feature_releases/8/ea?jvm_impl=hotspot&heap_size=normal&os=windows&architecture=x64&image_type=jre&project=jdk&vendor=adoptopenjdk&page_size=1&sort_order=DESC",
        "jp": "$..binaries[0].package.link",
        "re": "https://github.com/(?<url>.*?jdk(?<major>[\\d]+)u-(?<date>(?<year>[\\d]{4})-(?<month>[\\d]{2})-(?<day>[\\d]{2})-(?<hour>[\\d]{2})-(?<minute>[\\d]{2})))",
        "replace": "${year}${month}${day}${hour}${minute}"
    },
    "autoupdate": {
        "architecture": {
            "64bit": {
                "url": "https://github.com/$matchUrl/OpenJDK$matchMajorU-jre_x64_windows_hotspot_$matchDate.zip"
            }
        },
        "hash": {
            "url": "$url.sha256.txt",
            "find": "^([a-fA-F0-9]+)\\s"
        }
    }
}
