{
    "description": "AdoptOpenJDK JRE with Oracle HotSpot JVM",
    "homepage": "https://adoptopenjdk.net",
    "version": "14.0.2-12",
    "license": "GPL-2.0-only WITH Classpath-exception-2.0",
    "architecture": {
        "64bit": {
            "url": "https://github.com/AdoptOpenJDK/openjdk14-binaries/releases/download/jdk-14.0.2%2B12/OpenJDK14U-jre_x64_windows_hotspot_14.0.2_12.zip",
            "hash": "772733428098e3a1fe1e6a2815e93ef7761046f6846edf2e366250beb14e4d94"
        }
    },
    "extract_dir": "jdk-14.0.2+12-jre",
    "env_add_path": "bin",
    "env_set": {
        "JAVA_HOME": "$dir"
    },
    "checkver": {
        "url": "https://api.adoptopenjdk.net/v3/assets/version/%5B8%2C%29?release_type=ga&jvm_impl=hotspot&heap_size=normal&os=windows&architecture=x64&image_type=jre&project=jdk&vendor=adoptopenjdk&page_size=1&sort_order=DESC",
        "jp": "$..binaries[0].package.link",
        "re": "https://github.com/(?<url>.*?(?<tag>jdk-(?<major>(?<jdk>[\\d]+)[\\d.]*)(?:\\%2B|\\+)(?<build>[\\d]+)(?<patch>[\\d.]*)))/",
        "replace": "${major}-${build}${patch}"
    },
    "autoupdate": {
        "architecture": {
            "64bit": {
                "url": "https://github.com/$matchUrl/OpenJDK$matchJdkU-jre_x64_windows_hotspot_$matchMajor_$matchBuild.zip"
            }
        },
        "hash": {
            "url": "$url.sha256.txt",
            "find": "^([a-fA-F0-9]+)\\s"
        },
        "extract_dir": "jdk-$matchMajor+$matchBuild-jre"
    }
}
