{
    "description": "AdoptOpenJDK 11 with Eclipse OpenJ9 JVM",
    "homepage": "https://adoptopenjdk.net",
    "version": "11.0.8-10-0.21.0",
    "license": "GPL-2.0-only WITH Classpath-exception-2.0,EPL-2.0",
    "architecture": {
        "64bit": {
            "url": "https://github.com/AdoptOpenJDK/openjdk11-binaries/releases/download/jdk-11.0.8%2B10_openj9-0.21.0/OpenJDK11U-jdk_x64_windows_openj9_11.0.8_10_openj9-0.21.0.zip",
            "hash": "f89176b1dd554952d9790f65b46220eee63b6a58cdd84c7db5d922292074c674"
        }
    },
    "extract_dir": "jdk-11.0.8+10",
    "env_add_path": "bin",
    "env_set": {
        "JAVA_HOME": "$dir"
    },
    "checkver": {
        "url": "https://api.adoptopenjdk.net/v3/assets/feature_releases/11/ga?jvm_impl=openj9&heap_size=normal&os=windows&architecture=x64&image_type=jdk&project=jdk&vendor=adoptopenjdk&page_size=1&sort_order=DESC",
        "jp": "$..binaries[0].package.link",
        "re": "https://github.com/(?<url>.*?(?<tag>jdk-(?<major>(?<jdk>[\\d]+)[\\d.]+)(?:\\%2B|\\+)(?<build>[\\d]+)(?<patch>[\\d.]*)(?:(?<oj>_openj9?)(?<jvmver>-[\\d.]+))?)/.*?).zip",
        "replace": "${major}-${build}${patch}${jvmver}"
    },
    "autoupdate": {
        "architecture": {
            "64bit": {
                "url": "https://github.com/$matchUrl.zip"
            }
        },
        "hash": {
            "url": "$url.sha256.txt",
            "find": "^([a-fA-F0-9]+)\\s"
        },
        "extract_dir": "jdk-$matchMajor+$matchBuild"
    }
}
