{
    "description": "BellSoft Liberica is a 100% open-source Java 8 implementation",
    "homepage": "https://bell-sw.com/java",
    "version": "8u265-1",
    "license": "GPL-2.0-only WITH Classpath-exception-2.0",
    "architecture": {
        "64bit": {
            "url": "https://github.com/bell-sw/Liberica/releases/download/8u265%2B1/bellsoft-jdk8u265%2B1-windows-amd64-full.zip",
            "hash": "sha1:60cfb58e13daf752ee03150b991930da905ca05e"
        },
        "32bit": {
            "url": "https://github.com/bell-sw/Liberica/releases/download/8u265%2B1/bellsoft-jdk8u265%2B1-windows-i586-full.zip",
            "hash": "sha1:7f04e86d7c8193e19bfd7f60b7a0c68b4b14cf9b"
        }
    },
    "extract_dir": "jdk8u265",
    "env_add_path": "bin",
    "env_set": {
        "JAVA_HOME": "$dir"
    },
    "checkver": {
        "url": "https://api.bell-sw.com/v1/liberica/releases?version-feature=8&bundle-type=jdk-full&version-modifier=latest&release-type=all&os=windows&arch=x86&installation-type=archive&package-type=zip&output=json&fields=version",
        "jsonpath": "$.version",
        "regex": "(?<major>[\\du]+)(?:\\+)(?<build>[\\d]+)",
        "replace": "${major}-${build}"
    },
    "autoupdate": {
        "architecture": {
            "64bit": {
                "url": "https://github.com/bell-sw/Liberica/releases/download/$matchMajor%2B$matchBuild/bellsoft-jdk$matchMajor%2B$matchBuild-windows-amd64-full.zip"
            },
            "32bit": {
                "url": "https://github.com/bell-sw/Liberica/releases/download/$matchMajor%2B$matchBuild/bellsoft-jdk$matchMajor%2B$matchBuild-windows-i586-full.zip"
            }
        },
        "hash": {
            "url": "https://api.bell-sw.com/v1/liberica/releases/$basename",
            "jsonpath": "$.sha1"
        },
        "extract_dir": "jdk$matchMajor"
    }
}
