{
    "description": "Zulu 11 is a build of OpenJDK 11",
    "homepage": "https://www.azul.com/products/zulu-community/",
    "version": "11.41.23",
    "license": {
        "identifier": "GPL-2.0-only WITH Classpath-exception-2.0",
        "url": "https://www.azulsystems.com/license/zulu_third_party_licenses.html"
    },
    "architecture": {
        "64bit": {
            "url": "https://cdn.azul.com/zulu/bin/zulu11.41.23-ca-jdk11.0.8-win_x64.zip",
            "hash": "3602ed7bae52898c540c2d3ae3230c081cf061b219d14fb9ac15a47f4226d307",
            "extract_dir": "zulu11.41.23-ca-jdk11.0.8-win_x64"
        },
        "32bit": {
            "url": "https://cdn.azul.com/zulu/bin/zulu11.41.23-ca-jdk11.0.8-win_i686.zip",
            "hash": "ac11714f2ff36d08802dad53d9bda0daefff3b6672d7cf57cf0a13d004937f8d",
            "extract_dir": "zulu11.41.23-ca-jdk11.0.8-win_i686"
        }
    },
    "env_add_path": "bin",
    "env_set": {
        "JAVA_HOME": "$dir"
    },
    "checkver": {
        "url": "https://api.azul.com/zulu/download/community/v1.0/bundles/latest/?jdk_version=11&bundle_type=jdk&features=&ext=zip&os=windows&arch=x86&hw_bitness=64",
        "jsonpath": "$.name",
        "regex": "(?<name>zulu(?<version>[\\d.]+)-ca-jdk(?<java>[\\d.]+)-win)_x64.zip",
        "replace": "${version}"
    },
    "autoupdate": {
        "architecture": {
            "64bit": {
                "url": "https://cdn.azul.com/zulu/bin/$matchName_x64.zip",
                "extract_dir": "$matchName_x64",
                "hash": {
                    "url": "https://api.azul.com/zulu/download/community/v1.0/bundles/latest/?jdk_version=11&bundle_type=jdk&features=&ext=zip&os=windows&arch=x86&hw_bitness=64",
                    "jp": "$.sha256_hash"
                }
            },
            "32bit": {
                "url": "https://cdn.azul.com/zulu/bin/$matchName_i686.zip",
                "extract_dir": "$matchName_i686",
                "hash": {
                    "url": "https://api.azul.com/zulu/download/community/v1.0/bundles/latest/?jdk_version=11&bundle_type=jdk&features=&ext=zip&os=windows&arch=x86&hw_bitness=32",
                    "jp": "$.sha256_hash"
                }
            }
        }
    }
}
